<?xml version="1.0" encoding="utf-8"?>
<!-- Generator: Adobe Illustrator 17.0.0, SVG Export Plug-In . SVG Version: 6.00 Build 0)  -->
<!DOCTYPE svg PUBLIC "-//W3C//DTD SVG 1.1//EN" "http://www.w3.org/Graphics/SVG/1.1/DTD/svg11.dtd">
<svg version="1.1" id="Capa_1" xmlns="http://www.w3.org/2000/svg" xmlns:xlink="http://www.w3.org/1999/xlink" x="0px" y="0px"
	 width="283.46px" height="283.46px" viewBox="0 0 283.46 283.46" enable-background="new 0 0 283.46 283.46" xml:space="preserve">
<g>
	<g>
		<circle fill="#FFFFFF" cx="141.73" cy="11.073" r="11.073"/>
	</g>
</g>
<g>
	<g>
		<circle fill="#FFFFFF" cx="141.73" cy="272.387" r="11.073"/>
	</g>
</g>
<g>
	<g>
		<circle fill="#FFFFFF" cx="11.073" cy="141.73" r="11.073"/>
	</g>
</g>
<g>
	<g>
		<circle fill="#FFFFFF" cx="272.387" cy="141.73" r="11.073"/>
	</g>
</g>
<g>
	<g>
		<path fill="#FFFFFF" d="M228.349,59.28c4.264,2.607,9.909,2.066,13.6-1.624c4.324-4.324,4.324-11.335,0-15.659
			c-4.324-4.324-11.335-4.324-15.66,0c-3.676,3.676-4.227,9.293-1.653,13.551c-22.388-21.559-51.737-33.403-82.906-33.403
			S81.212,33.99,58.824,55.548c2.574-4.258,2.022-9.875-1.653-13.551c-4.324-4.324-11.335-4.324-15.66,0s-4.324,11.335,0,15.659
			c3.69,3.69,9.336,4.231,13.6,1.624c-21.282,22.33-32.966,51.493-32.966,82.45c0,31.942,12.439,61.973,35.026,84.559
			s52.617,35.026,84.559,35.026s61.973-12.439,84.559-35.026s35.026-52.617,35.026-84.559
			C261.315,110.773,249.631,81.61,228.349,59.28z M238.544,130.657h-65.493c-0.393-1.108-0.843-2.19-1.348-3.241l46.282-46.282
			C229.072,95.058,236.433,112.073,238.544,130.657z M152.803,44.916c18.584,2.112,35.6,9.472,49.523,20.559l-46.282,46.282
			c-1.051-0.504-2.133-0.954-3.241-1.348V44.916z M130.657,44.916v65.494c-1.108,0.393-2.19,0.843-3.241,1.348L81.134,65.475
			C95.058,54.388,112.073,47.028,130.657,44.916z M65.475,81.134l46.282,46.282c-0.504,1.051-0.954,2.133-1.348,3.241H44.916
			C47.027,112.073,54.388,95.058,65.475,81.134z M44.916,152.803h65.493c0.393,1.108,0.843,2.19,1.348,3.241l-46.282,46.282
			C54.388,188.402,47.027,171.387,44.916,152.803z M130.657,238.544c-18.584-2.112-35.6-9.472-49.523-20.559l46.282-46.282
			c1.051,0.504,2.133,0.954,3.241,1.348L130.657,238.544z M141.73,152.803c-6.105,0-11.073-4.967-11.073-11.073
			s4.967-11.073,11.073-11.073s11.073,4.967,11.073,11.073S147.835,152.803,141.73,152.803z M152.803,238.544v-65.493
			c1.108-0.393,2.19-0.843,3.241-1.348l46.282,46.282C188.402,229.072,171.387,236.432,152.803,238.544z M217.985,202.326
			l-46.282-46.282c0.504-1.051,0.954-2.133,1.348-3.241h65.493C236.433,171.387,229.072,188.402,217.985,202.326z"/>
	</g>
</g>
<g>
	<g>
		<circle fill="#FFFFFF" cx="49.34" cy="234.187" r="11.073"/>
	</g>
</g>
<g>
	<g>
		<circle fill="#FFFFFF" cx="234.12" cy="234.187" r="11.073"/>
	</g>
</g>
</svg>
