<?xml version="1.0" encoding="utf-8"?>
<!-- Generator: Adobe Illustrator 19.0.0, SVG Export Plug-In . SVG Version: 6.00 Build 0)  -->
<svg version="1.1" id="Layer_1" xmlns="http://www.w3.org/2000/svg" xmlns:xlink="http://www.w3.org/1999/xlink" x="0px" y="0px"
	 viewBox="0 0 56.9 54.1" style="enable-background:new 0 0 56.9 54.1;" xml:space="preserve">
<style type="text/css">
	.st0{fill:#FFFFFF;}
	.st1{fill:none;}
	.st2{fill:#FCC23A;}
</style>
<g>
	<polygon class="st0" points="33.2,5.3 34.6,7.7 37.4,8 35.5,10 36.1,12.7 33.5,11.6 31.2,13 31.5,10.2 29.4,8.4 32.1,7.9 	"/>
	<polygon class="st0" points="40.3,3.7 41.4,5.7 43.6,5.9 42.1,7.5 42.5,9.7 40.5,8.8 38.6,9.9 38.9,7.7 37.2,6.2 39.4,5.8 	"/>
	<polygon class="st0" points="46.3,2.2 47.2,3.8 48.9,3.9 47.7,5.2 48.1,7 46.5,6.2 45,7.1 45.2,5.4 43.8,4.2 45.6,3.9 	"/>
	<polygon class="st0" points="51.2,1.1 51.9,2.3 53.3,2.4 52.4,3.5 52.7,4.9 51.4,4.3 50.2,5 50.3,3.6 49.3,2.6 50.7,2.4 	"/>
	<polygon class="st0" points="55.2,0 55.8,1 56.9,1.1 56.2,1.9 56.4,3 55.4,2.6 54.4,3.2 54.5,2 53.7,1.3 54.8,1 	"/>
</g>
<g>
	<g>
		<path class="st1" d="M24.2,24.9c-0.3-0.4-0.5-0.9-0.8-1.3c-0.2,0.5-0.4,1-0.6,1.5c-0.5,0.1-1,0.2-1.6,0.3c0.4,0.4,0.8,0.7,1.2,1
			c-0.1,0.5-0.1,1-0.2,1.6c0.5-0.3,0.9-0.6,1.4-0.9c0.5,0.2,1,0.4,1.4,0.5c-0.1-0.5-0.2-1-0.4-1.5c0.4-0.4,0.7-0.9,1.1-1.3
			C25.3,24.9,24.8,24.9,24.2,24.9z"/>
		<path class="st0" d="M2.6,34.7C2.6,34.7,2.6,34.7,2.6,34.7c7.8-1.5,15.6,1.6,23.5-0.5c-4-1.4-8.1-4.3-12.1-7.2
			C10.2,29.2,6.4,31.4,2.6,34.7z"/>
		<polygon class="st2" points="26.1,34.2 26.1,34.2 26.1,34.2 		"/>
		<path class="st0" d="M25.2,16.5c-7.8,1.4-15.6-1.8-23.5,0.2c4,1.5,8.1,4.4,12.1,7.4C17.6,21.9,21.4,19.7,25.2,16.5z"/>
		<g>
			<path class="st1" d="M24.2,24.9c-0.3-0.4-0.5-0.9-0.8-1.3c-0.2,0.5-0.4,1-0.6,1.5c-0.5,0.1-1,0.2-1.6,0.3c0.4,0.4,0.8,0.7,1.2,1
				c-0.1,0.5-0.1,1-0.2,1.6c0.5-0.3,0.9-0.6,1.4-0.9c0.5,0.2,1,0.4,1.4,0.5c-0.1-0.5-0.2-1-0.4-1.5c0.4-0.4,0.7-0.9,1.1-1.3
				C25.3,24.9,24.8,24.9,24.2,24.9z"/>
			<g>
				<path class="st1" d="M24.2,24.9c-0.3-0.4-0.5-0.9-0.8-1.3c-0.2,0.5-0.4,1-0.6,1.5c-0.5,0.1-1,0.2-1.6,0.3c0.4,0.4,0.8,0.7,1.2,1
					c-0.1,0.5-0.1,1-0.2,1.6c0.5-0.3,0.9-0.6,1.4-0.9c0.5,0.2,1,0.4,1.4,0.5c-0.1-0.5-0.2-1-0.4-1.5c0.4-0.4,0.7-0.9,1.1-1.3
					C25.3,24.9,24.8,24.9,24.2,24.9z"/>
				<path class="st0" d="M0,19c0.3,4.8,0.5,9.6,0.8,14.4c3.6-3.5,7.2-5.9,10.9-8C7.8,22.6,3.9,20.1,0,19z M4.2,26.7
					c-0.5,0.3-0.9,0.6-1.4,1C2.9,27.2,3,26.6,3,26.1c-0.4-0.3-0.8-0.6-1.2-0.9c0.5-0.2,1-0.4,1.6-0.5c0.2-0.5,0.4-1,0.6-1.5
					c0.3,0.4,0.5,0.9,0.8,1.3c0.5,0,1.1,0.1,1.6,0.1C6,25,5.7,25.4,5.3,25.8c0.1,0.5,0.2,1,0.4,1.6C5.2,27.1,4.7,26.9,4.2,26.7z"/>
			</g>
		</g>
	</g>
	<path class="st0" d="M27.1,17.9c-3.6,3.4-7.3,5.7-10.9,7.9C20.1,28.5,24,31,27.8,32 M25.1,27.7c-0.5-0.1-1-0.3-1.4-0.5
		c-0.5,0.3-0.9,0.6-1.4,0.9c0.1-0.5,0.1-1,0.2-1.6c-0.4-0.3-0.8-0.7-1.2-1c0.5-0.1,1-0.2,1.6-0.3c0.2-0.5,0.4-1,0.6-1.5
		c0.3,0.4,0.5,0.9,0.8,1.3c0.5,0,1.1,0,1.6-0.1c-0.4,0.4-0.7,0.9-1.1,1.3C24.8,26.7,25,27.2,25.1,27.7z"/>
</g>
<path class="st0" d="M49.1,30.7L49.1,30.7l0.1,0.1L33.8,44.8l-2.5-1.5l0,0l0,0l0,0l0,0l0,0l0,0l-1.3-2.3l-5.8,1.2l-6.6,1.4L6.6,44.1
	l0.5,7.1c2.7,1.9,5.9,3,9.4,3c0.7,0,1.4,0,2.1-0.1c-0.8-0.8-1.6-1.6-2.2-2.5c2.5,1.4,5.4,2.3,8.5,2.3c5.2,0,9.8-2.3,12.9-5.9
	l12.8-14.7v-3.9C50.7,29.3,50.1,29.8,49.1,30.7z"/>
</svg>
